{
    "fluentMethods": true,
    "relationships": [
        {
            "relationshipName": "box",
            "otherEntityName": "box",
            "relationshipType": "many-to-one",
            "relationshipValidateRules": [
                "required"
            ],
            "otherEntityField": "packageId"
        }
    ],
    "fields": [
        {
            "fieldName": "version",
            "fieldType": "String",
            "fieldValidateRules": [
                "required"
            ]
        },
        {
            "fieldName": "downloadUrl",
            "fieldType": "String",
            "fieldValidateRules": [
                "required"
            ]
        },
        {
            "fieldName": "creation",
            "fieldType": "ZonedDateTime",
            "fieldValidateRules": [
                "required"
            ]
        }
    ],
    "changelogDate": "20181111135521",
    "dto": "no",
    "service": "no",
    "entityTableName": "box_version",
    "jpaMetamodelFiltering": false,
    "pagination": "no",
    "microserviceName": "ring",
    "searchEngine": false
}
